\relax 
\catcode`"\active
\catcode`-\active
\citation{gif}
\citation{bmp}
\select@language{czech}
\@writefile{toc}{\select@language{czech}}
\@writefile{lof}{\select@language{czech}}
\@writefile{lot}{\select@language{czech}}
\@writefile{toc}{\contentsline {section}{\numberline {1}\IeC {\'U}vod}{1}}
\@writefile{toc}{\contentsline {section}{\numberline {2}Form\IeC {\'a}t GIF}{1}}
\@writefile{toc}{\contentsline {subsection}{\numberline {2.1}LZW dekomprese}{1}}
\bibstyle{./czechiso}
\bibdata{literatura}
\bibcite{gif}{1}
\bibcite{bmp}{2}
\@writefile{toc}{\contentsline {section}{\numberline {3}Form\IeC {\'a}t BMP}{2}}
\@writefile{toc}{\contentsline {section}{\numberline {4}Implementace}{2}}
\@writefile{toc}{\contentsline {subsection}{\numberline {4.1}\IeC {\v C}ten\IeC {\'\i } vzork\IeC {\r u}}{2}}
\@writefile{lof}{\contentsline {figure}{\numberline {1}{\ignorespaces Princip \IeC {\v c}ten\IeC {\'\i } vzork\IeC {\r u} nestandardn\IeC {\'\i } velikosti}}{2}}
\newlabel{img:reader}{{1}{2}}
\@writefile{toc}{\contentsline {subsection}{\numberline {4.2}Slovn\IeC {\'\i }k}{2}}
\@writefile{lof}{\contentsline {figure}{\numberline {2}{\ignorespaces Princip \IeC {\v c}ten\IeC {\'\i } vzork\IeC {\r u}}}{2}}
\newlabel{img:reader}{{2}{2}}
\@writefile{toc}{\contentsline {section}{\numberline {5}Z\IeC {\'a}v\IeC {\v e}r}{2}}
